%YAML 1.1
%TAG !u! tag:unity3d.com,2011:
--- !u!1045 &1
EditorBuildSettings:
  m_ObjectHideFlags: 0
  serializedVersion: 2
  m_Scenes:
  - enabled: 1
    path: Assets/Scenes/offline.unity
    guid: 40108d20abfe1994aba5b043f3ff6f87
  - enabled: 0
    path: Assets/Scenes/online.unity
    guid: 9fc0d4010bbf28b4594072e72b8655ab
  - enabled: 1
    path: Assets/Scenes/online2.unity
    guid: 99e6ecf72fe3c3f43865e7bbe134bb04
  m_configObjects:
    Unity.XR.Oculus.Settings: {fileID: 11400000, guid: 00d51c38243ca244e950d8f0e2465098, type: 2}
    Unity.XR.OpenVR.Settings: {fileID: 11400000, guid: 51ca1826f75e81c47a0ad6bb3a3d127c, type: 2}
    com.unity.xr.management.loader_settings: {fileID: 11400000, guid: ea5aac44e665ef34cb228e4977e1a788, type: 2}
