%YAML 1.1
%TAG !u! tag:unity3d.com,2011:
--- !u!1001 &2761123538251532037
PrefabInstance:
  m_ObjectHideFlags: 0
  serializedVersion: 2
  m_Modification:
    m_TransformParent: {fileID: 0}
    m_Modifications:
    - target: {fileID: 1300788708637389483, guid: b95d6e988aee11446b8dcb43f55bb0a2, type: 3}
      propertyPath: m_LocalScale.y
      value: 1
      objectReference: {fileID: 0}
    - target: {fileID: 2023224227642580021, guid: b95d6e988aee11446b8dcb43f55bb0a2, type: 3}
      propertyPath: m_LocalScale.y
      value: 1
      objectReference: {fileID: 0}
    - target: {fileID: 2978220034462043315, guid: b95d6e988aee11446b8dcb43f55bb0a2, type: 3}
      propertyPath: m_LocalScale.y
      value: 1
      objectReference: {fileID: 0}
    - target: {fileID: 2978220034641419333, guid: b95d6e988aee11446b8dcb43f55bb0a2, type: 3}
      propertyPath: m_LocalScale.y
      value: 1
      objectReference: {fileID: 0}
    - target: {fileID: 2978220034759072520, guid: b95d6e988aee11446b8dcb43f55bb0a2, type: 3}
      propertyPath: m_LocalPosition.x
      value: 0
      objectReference: {fileID: 0}
    - target: {fileID: 2978220034759072520, guid: b95d6e988aee11446b8dcb43f55bb0a2, type: 3}
      propertyPath: m_LocalPosition.y
      value: 0
      objectReference: {fileID: 0}
    - target: {fileID: 2978220034759072520, guid: b95d6e988aee11446b8dcb43f55bb0a2, type: 3}
      propertyPath: m_LocalPosition.z
      value: 0
      objectReference: {fileID: 0}
    - target: {fileID: 2978220034759072520, guid: b95d6e988aee11446b8dcb43f55bb0a2, type: 3}
      propertyPath: m_LocalRotation.x
      value: 0
      objectReference: {fileID: 0}
    - target: {fileID: 2978220034759072520, guid: b95d6e988aee11446b8dcb43f55bb0a2, type: 3}
      propertyPath: m_LocalRotation.y
      value: 0
      objectReference: {fileID: 0}
    - target: {fileID: 2978220034759072520, guid: b95d6e988aee11446b8dcb43f55bb0a2, type: 3}
      propertyPath: m_LocalRotation.z
      value: 0
      objectReference: {fileID: 0}
    - target: {fileID: 2978220034759072520, guid: b95d6e988aee11446b8dcb43f55bb0a2, type: 3}
      propertyPath: m_LocalRotation.w
      value: 1
      objectReference: {fileID: 0}
    - target: {fileID: 2978220034759072520, guid: b95d6e988aee11446b8dcb43f55bb0a2, type: 3}
      propertyPath: m_RootOrder
      value: 0
      objectReference: {fileID: 0}
    - target: {fileID: 2978220034759072520, guid: b95d6e988aee11446b8dcb43f55bb0a2, type: 3}
      propertyPath: m_LocalEulerAnglesHint.x
      value: 0
      objectReference: {fileID: 0}
    - target: {fileID: 2978220034759072520, guid: b95d6e988aee11446b8dcb43f55bb0a2, type: 3}
      propertyPath: m_LocalEulerAnglesHint.y
      value: 0
      objectReference: {fileID: 0}
    - target: {fileID: 2978220034759072520, guid: b95d6e988aee11446b8dcb43f55bb0a2, type: 3}
      propertyPath: m_LocalEulerAnglesHint.z
      value: 0
      objectReference: {fileID: 0}
    - target: {fileID: 2978220034759072521, guid: b95d6e988aee11446b8dcb43f55bb0a2, type: 3}
      propertyPath: m_Name
      value: Stage 1
      objectReference: {fileID: 0}
    - target: {fileID: 2978220034832872958, guid: b95d6e988aee11446b8dcb43f55bb0a2, type: 3}
      propertyPath: m_LocalScale.y
      value: 1
      objectReference: {fileID: 0}
    - target: {fileID: 2978220036033652117, guid: b95d6e988aee11446b8dcb43f55bb0a2, type: 3}
      propertyPath: m_LocalScale.y
      value: 1
      objectReference: {fileID: 0}
    - target: {fileID: 5608626202756870410, guid: b95d6e988aee11446b8dcb43f55bb0a2, type: 3}
      propertyPath: m_LocalScale.y
      value: 1
      objectReference: {fileID: 0}
    m_RemovedComponents: []
  m_SourcePrefab: {fileID: 100100000, guid: b95d6e988aee11446b8dcb43f55bb0a2, type: 3}
