%YAML 1.1
%TAG !u! tag:unity3d.com,2011:
--- !u!1001 &1172719980527330135
PrefabInstance:
  m_ObjectHideFlags: 0
  serializedVersion: 2
  m_Modification:
    m_TransformParent: {fileID: 0}
    m_Modifications:
    - target: {fileID: 4298805082381519522, guid: e1aa979a08020c44b9585d0a6d339900, type: 3}
      propertyPath: m_Name
      value: LHand
      objectReference: {fileID: 0}
    - target: {fileID: 4298805082381519544, guid: e1aa979a08020c44b9585d0a6d339900, type: 3}
      propertyPath: m_LocalPosition.x
      value: 0
      objectReference: {fileID: 0}
    - target: {fileID: 4298805082381519544, guid: e1aa979a08020c44b9585d0a6d339900, type: 3}
      propertyPath: m_LocalPosition.y
      value: 0
      objectReference: {fileID: 0}
    - target: {fileID: 4298805082381519544, guid: e1aa979a08020c44b9585d0a6d339900, type: 3}
      propertyPath: m_LocalPosition.z
      value: 0
      objectReference: {fileID: 0}
    - target: {fileID: 4298805082381519544, guid: e1aa979a08020c44b9585d0a6d339900, type: 3}
      propertyPath: m_LocalRotation.x
      value: -0
      objectReference: {fileID: 0}
    - target: {fileID: 4298805082381519544, guid: e1aa979a08020c44b9585d0a6d339900, type: 3}
      propertyPath: m_LocalRotation.y
      value: -0
      objectReference: {fileID: 0}
    - target: {fileID: 4298805082381519544, guid: e1aa979a08020c44b9585d0a6d339900, type: 3}
      propertyPath: m_LocalRotation.z
      value: -0
      objectReference: {fileID: 0}
    - target: {fileID: 4298805082381519544, guid: e1aa979a08020c44b9585d0a6d339900, type: 3}
      propertyPath: m_LocalRotation.w
      value: 1
      objectReference: {fileID: 0}
    - target: {fileID: 4298805082381519544, guid: e1aa979a08020c44b9585d0a6d339900, type: 3}
      propertyPath: m_RootOrder
      value: 0
      objectReference: {fileID: 0}
    - target: {fileID: 4298805082381519544, guid: e1aa979a08020c44b9585d0a6d339900, type: 3}
      propertyPath: m_LocalEulerAnglesHint.x
      value: 0
      objectReference: {fileID: 0}
    - target: {fileID: 4298805082381519544, guid: e1aa979a08020c44b9585d0a6d339900, type: 3}
      propertyPath: m_LocalEulerAnglesHint.y
      value: 0
      objectReference: {fileID: 0}
    - target: {fileID: 4298805082381519544, guid: e1aa979a08020c44b9585d0a6d339900, type: 3}
      propertyPath: m_LocalEulerAnglesHint.z
      value: 0
      objectReference: {fileID: 0}
    - target: {fileID: 4298805082381519545, guid: e1aa979a08020c44b9585d0a6d339900, type: 3}
      propertyPath: m_Mesh
      value: 
      objectReference: {fileID: 4300002, guid: 25b5eb0761edb6346b0b3444af76b55e, type: 3}
    - target: {fileID: 4298805082381519548, guid: e1aa979a08020c44b9585d0a6d339900, type: 3}
      propertyPath: m_PoseSource
      value: 4
      objectReference: {fileID: 0}
    - target: {fileID: 4298805082381519551, guid: e1aa979a08020c44b9585d0a6d339900, type: 3}
      propertyPath: m_Material
      value: 
      objectReference: {fileID: 0}
    m_RemovedComponents: []
  m_SourcePrefab: {fileID: 100100000, guid: e1aa979a08020c44b9585d0a6d339900, type: 3}
